id,first_name,last_name,email,gender,ip_address
1,Adda,Gurnee,agurnee0@illinois.edu,Female,45.105.126.237
2,Noami,Eagland,neagland1@aol.com,Female,170.188.172.200
3,Gerti,Wandrach,gwandrach2@ted.com,Female,148.231.25.217
4,Forester,Gisbey,fgisbey3@prweb.com,Male,224.179.125.133
5,Kevon,Cone,kcone4@cnbc.com,Male,120.128.234.76
6,Marney,Streater,mstreater5@devhub.com,Female,8.121.101.254
7,Lilli,Everitt,leveritt6@i2i.jp,Female,171.29.221.107
8,Carce,Tupman,ctupman7@scribd.com,Male,126.50.243.203
9,Jae,Miles,jmiles8@mapquest.com,Male,0.8.125.58
10,Madelin,Satchel,msatchel9@ucoz.com,Female,27.211.44.255
